{
  "version": 2,
  "builds": [{
    "use": "@now/static"
  }],
  "routes": [{
      "handle": "filesystem"
    },
    {
      "src": "/",
      "dest": "/index.html",
      "status": 200
    },
    {
      "src": "/.*",
      "dest": "/404.html",
      "status": 404
    }
  ]
}
